module github.com/mrcharlss/greenlight

go 1.18

require (
	github.com/go-mail/mail/v2 v2.3.0
	github.com/joho/godotenv v1.4.0
	github.com/julienschmidt/httprouter v1.3.0
	github.com/lib/pq v1.10.0
	golang.org/x/crypto v0.0.0-20220525230936-793ad666bf5e
	golang.org/x/time v0.0.0-20220411224347-583f2d630306
)

require (
	gopkg.in/alexcesaro/quotedprintable.v3 v3.0.0-20150716171945-2caba252f4dc // indirect
	gopkg.in/mail.v2 v2.3.1 // indirect
)
